<?xml version="1.0" encoding="UTF-8" standalone="no"?>
<!-- Created with Inkscape (http://www.inkscape.org/) -->

<svg
   width="37.728142mm"
   height="62.713909mm"
   viewBox="0 0 37.728141 62.713908"
   version="1.1"
   id="svg5"
   sodipodi:docname="chapter8-2.svg"
   inkscape:export-filename="chapter8-2.svg"
   inkscape:export-xdpi="96"
   inkscape:export-ydpi="96"
   inkscape:version="1.2.2 (b0a8486, 2022-12-01)"
   xmlns:inkscape="http://www.inkscape.org/namespaces/inkscape"
   xmlns:sodipodi="http://sodipodi.sourceforge.net/DTD/sodipodi-0.dtd"
   xmlns="http://www.w3.org/2000/svg"
   xmlns:svg="http://www.w3.org/2000/svg">
  <sodipodi:namedview
     id="namedview212"
     pagecolor="#ffffff"
     bordercolor="#000000"
     borderopacity="0.25"
     inkscape:showpageshadow="2"
     inkscape:pageopacity="0.0"
     inkscape:pagecheckerboard="0"
     inkscape:deskcolor="#d1d1d1"
     inkscape:document-units="mm"
     showgrid="false"
     inkscape:zoom="0.88950676"
     inkscape:cx="277.68198"
     inkscape:cy="281.61675"
     inkscape:window-width="1440"
     inkscape:window-height="791"
     inkscape:window-x="0"
     inkscape:window-y="25"
     inkscape:window-maximized="0"
     inkscape:current-layer="layer1" />
  <defs
     id="defs2">
    <rect
       x="379.38202"
       y="183.10124"
       width="379.38202"
       height="94.610153"
       id="rect10957" />
    <rect
       x="221.33795"
       y="567.72894"
       width="94.523636"
       height="53.426403"
       id="rect22999-4-6-5" />
    <rect
       x="379.38202"
       y="183.10124"
       width="379.38202"
       height="94.610153"
       id="rect10957-76" />
  </defs>
  <g
     id="layer1"
     transform="translate(-137.38602,-85.074343)">
    <rect
       style="fill:#b5ccff;fill-opacity:1;stroke-width:0.272204"
       id="rect234-8"
       width="37.728062"
       height="25.718788"
       x="137.38609"
       y="95.486992"
       inkscape:export-filename="chapter8-2.svg"
       inkscape:export-xdpi="96"
       inkscape:export-ydpi="96" />
    <g
       id="g14060"
       transform="translate(38.389147,46.423549)">
      <text
         xml:space="preserve"
         transform="matrix(0.26458333,0,0,0.26458333,10.074315,8.4445039)"
         id="text10955"
         style="font-size:22.6667px;font-family:Poppins;-inkscape-font-specification:'Poppins, Normal';white-space:pre;shape-inside:url(#rect10957);display:inline;fill:#ffffff;fill-opacity:1;stroke-width:3.18236"><tspan
           x="379.38281"
           y="215.7682"
           id="tspan64840"><tspan
             style="font-size:37.3333px"
             id="tspan64838">x: 3</tspan></tspan></text>
    </g>
    <rect
       style="fill:#b5ccff;fill-opacity:1;stroke-width:0.272204"
       id="rect234-8-27"
       width="37.728062"
       height="25.718788"
       x="137.38602"
       y="122.06946" />
    <g
       id="g14060-0"
       transform="translate(37.623543,71.657692)">
      <text
         xml:space="preserve"
         transform="matrix(0.26458333,0,0,0.26458333,10.074315,8.4445039)"
         id="text10955-3"
         style="font-size:22.6667px;font-family:Poppins;-inkscape-font-specification:'Poppins, Normal';white-space:pre;shape-inside:url(#rect10957-76);display:inline;fill:#ffffff;fill-opacity:1;stroke-width:3.18236"><tspan
           x="379.38281"
           y="215.7682"
           id="tspan64844"><tspan
             style="font-size:37.3333px"
             id="tspan64842">y: 4</tspan></tspan></text>
    </g>
    <text
       xml:space="preserve"
       transform="matrix(0.26458333,0,0,0.26458333,79.073853,-67.324372)"
       id="text22997-8-1-0"
       style="font-style:normal;font-variant:normal;font-weight:normal;font-stretch:normal;font-size:32px;font-family:Poppins;-inkscape-font-specification:'Poppins, Normal';font-variant-ligatures:normal;font-variant-caps:normal;font-variant-numeric:normal;font-variant-east-asian:normal;white-space:pre;shape-inside:url(#rect22999-4-6-5);display:inline;fill:#a1a1a1;fill-opacity:1;stroke:none;stroke-width:3.77953;stroke-dasharray:none;stroke-opacity:1"><tspan
         x="221.33789"
         y="595.72852"
         id="tspan64848"><tspan
           style="font-size:26.6667px"
           id="tspan64846">blank</tspan></tspan></text>
  </g>
</svg>
