<?xml version="1.0" encoding="UTF-8" standalone="no"?>
<svg
   xmlns:dc="http://purl.org/dc/elements/1.1/"
   xmlns:cc="http://creativecommons.org/ns#"
   xmlns:rdf="http://www.w3.org/1999/02/22-rdf-syntax-ns#"
   xmlns:svg="http://www.w3.org/2000/svg"
   xmlns="http://www.w3.org/2000/svg"
   xmlns:sodipodi="http://sodipodi.sourceforge.net/DTD/sodipodi-0.dtd"
   xmlns:inkscape="http://www.inkscape.org/namespaces/inkscape"
   width="98.766632mm"
   height="78.34951mm"
   viewBox="0 0 98.766632 78.34951"
   version="1.1"
   id="svg55124"
   sodipodi:docname="print_mult_table_stack_diagram.svg"
   inkscape:version="1.0.2 (e86c870879, 2021-01-15)"
   inkscape:export-filename="/home/jelkner/Projects/thinkcscpp/source/illustrations/ch06/print_mult_table_stack_diagram.png"
   inkscape:export-xdpi="96"
   inkscape:export-ydpi="96">
  <metadata
     id="metadata28">
    <rdf:RDF>
      <cc:Work
         rdf:about="">
        <dc:format>image/svg+xml</dc:format>
        <dc:type
           rdf:resource="http://purl.org/dc/dcmitype/StillImage" />
      </cc:Work>
    </rdf:RDF>
  </metadata>
  <sodipodi:namedview
     pagecolor="#ffffff"
     bordercolor="#666666"
     borderopacity="1"
     objecttolerance="10"
     gridtolerance="10"
     guidetolerance="10"
     inkscape:pageopacity="0"
     inkscape:pageshadow="2"
     inkscape:window-width="1741"
     inkscape:window-height="1336"
     id="namedview26"
     showgrid="false"
     inkscape:zoom="2.4685594"
     inkscape:cx="186.6456"
     inkscape:cy="148.06207"
     inkscape:window-x="793"
     inkscape:window-y="185"
     inkscape:window-maximized="0"
     inkscape:current-layer="layer1" />
  <defs
     id="defs55121">
    <rect
       x="379.38202"
       y="183.10124"
       width="379.38202"
       height="94.610153"
       id="rect10957-5-72-2-2" />
    <rect
       x="379.38202"
       y="183.10124"
       width="379.38202"
       height="94.610153"
       id="rect10957-5-72-2-2-8" />
    <rect
       x="379.38202"
       y="183.10124"
       width="379.38202"
       height="94.610153"
       id="rect10957-5-72-2-2-8-3" />
    <rect
       x="379.38202"
       y="183.10124"
       width="379.38202"
       height="94.610153"
       id="rect10957-5-72-1" />
    <rect
       x="379.38202"
       y="183.10124"
       width="379.38202"
       height="94.610153"
       id="rect10957-7-4-29-7-6" />
    <rect
       x="379.38202"
       y="183.10124"
       width="379.38202"
       height="94.610153"
       id="rect10957-7-4-29-7-6-4" />
  </defs>
  <g
     id="layer1"
     transform="translate(-146.80664,-87.63267)">
    <rect
       style="fill:#54e27e;fill-opacity:1;stroke-width:0.31517"
       id="rect234-2"
       width="50.578407"
       height="25.718788"
       x="146.80664"
       y="87.632668" />
    <rect
       style="fill:#54e27e;fill-opacity:1;stroke-width:0.315025"
       id="rect234-8-2"
       width="50.532001"
       height="25.718788"
       x="146.84416"
       y="113.94619" />
    <rect
       style="fill:#54e27e;fill-opacity:1;stroke-width:0.315024"
       id="rect234-8-2-0"
       width="50.531597"
       height="25.718788"
       x="146.85828"
       y="140.2634" />
    <text
       xml:space="preserve"
       transform="matrix(0.26458333,0,0,0.26458333,54.057724,101.03298)"
       id="text10955-8-5-1"
       style="font-style:normal;font-variant:normal;font-weight:normal;font-stretch:normal;font-size:26.6667px;font-family:Poppins;-inkscape-font-specification:'Poppins, Normal';font-variant-ligatures:normal;font-variant-caps:normal;font-variant-numeric:normal;font-variant-east-asian:normal;white-space:pre;shape-inside:url(#rect10957-5-72-1);fill:#ffffff;fill-opacity:1;stroke-width:3.18236;"><tspan
         x="379.38281"
         y="206.69534"><tspan>n:  1</tspan></tspan></text>
    <text
       xml:space="preserve"
       transform="matrix(0.26458333,0,0,0.26458333,78.847194,101.16703)"
       id="text10955-2-8-0-5-0"
       style="font-style:normal;font-variant:normal;font-weight:normal;font-stretch:normal;font-size:26.6667px;font-family:Poppins;-inkscape-font-specification:'Poppins, Normal';font-variant-ligatures:normal;font-variant-caps:normal;font-variant-numeric:normal;font-variant-east-asian:normal;white-space:pre;shape-inside:url(#rect10957-7-4-29-7-6);fill:#ffffff;fill-opacity:1;stroke-width:3.18236;"><tspan
         x="379.38281"
         y="206.69534"><tspan>i:  3</tspan></tspan></text>
    <text
       xml:space="preserve"
       transform="matrix(0.26458333,0,0,0.26458333,78.847194,74.849816)"
       id="text10955-2-8-0-5-0-0"
       style="font-style:normal;font-variant:normal;font-weight:normal;font-stretch:normal;font-size:26.6667px;font-family:Poppins;-inkscape-font-specification:'Poppins, Normal';font-variant-ligatures:normal;font-variant-caps:normal;font-variant-numeric:normal;font-variant-east-asian:normal;white-space:pre;shape-inside:url(#rect10957-7-4-29-7-6-4);fill:#ffffff;fill-opacity:1;stroke-width:3.18236;"><tspan
         x="379.38281"
         y="206.69534"><tspan>i:  1</tspan></tspan></text>
    <text
       xml:space="preserve"
       transform="matrix(0.26458333,0,0,0.26458333,102.45873,101.69354)"
       id="text10955-8-5-5-3"
       style="font-size:22.6667px;font-family:Poppins;-inkscape-font-specification:'Poppins, Normal';white-space:pre;shape-inside:url(#rect10957-5-72-2-2);fill:#a1a1a1;fill-opacity:1;stroke-width:3.18236;"><tspan
         x="379.38281"
         y="203.15628"><tspan>print_multiples</tspan></tspan></text>
    <text
       xml:space="preserve"
       transform="matrix(0.26458333,0,0,0.26458333,102.45873,75.376336)"
       id="text10955-8-5-5-3-3"
       style="font-size:22.6667px;font-family:Poppins;-inkscape-font-specification:'Poppins, Normal';white-space:pre;shape-inside:url(#rect10957-5-72-2-2-8);fill:#a1a1a1;fill-opacity:1;stroke-width:3.18236;"><tspan
         x="379.38281"
         y="203.15628"><tspan>print_mult_table</tspan></tspan></text>
    <text
       xml:space="preserve"
       transform="matrix(0.26458333,0,0,0.26458333,102.45873,49.062818)"
       id="text10955-8-5-5-3-3-7"
       style="font-size:22.6667px;font-family:Poppins;-inkscape-font-specification:'Poppins, Normal';white-space:pre;shape-inside:url(#rect10957-5-72-2-2-8-3);fill:#a1a1a1;fill-opacity:1;stroke-width:3.18236;"><tspan
         x="379.38281"
         y="203.15628"><tspan>main</tspan></tspan></text>
  </g>
</svg>
